127.0.0.1 - - [12/Jul/2016:14:56:50 +0200] "GET / HTTP/1.1" 404 994
0:0:0:0:0:0:0:1 - - [12/Jul/2016:14:56:52 +0200] "GET /SDA_DocBookCMS/servlet/com.example.sda_docbookcms.DocBookUI$Servlet HTTP/1.1" 200 2175
0:0:0:0:0:0:0:1 - - [12/Jul/2016:14:56:52 +0200] "GET /SDA_DocBookCMS/VAADIN/vaadinBootstrap.js?v=7.6.6 HTTP/1.1" 304 -
0:0:0:0:0:0:0:1 - - [12/Jul/2016:14:56:52 +0200] "GET /SDA_DocBookCMS/VAADIN/widgetsets/com.vaadin.DefaultWidgetSet/com.vaadin.DefaultWidgetSet.nocache.js?1468328212760 HTTP/1.1" 200 3295
0:0:0:0:0:0:0:1 - - [12/Jul/2016:14:56:55 +0200] "POST /SDA_DocBookCMS/servlet/com.example.sda_docbookcms.DocBookUI$Servlet?v-1468328212762 HTTP/1.1" 200 4730
0:0:0:0:0:0:0:1 - - [12/Jul/2016:14:56:58 +0200] "GET /SDA_DocBookCMS/VAADIN/themes/DocBookUI/styles.css?v=7.6.6 HTTP/1.1" 200 314284
0:0:0:0:0:0:0:1 - - [12/Jul/2016:14:56:58 +0200] "GET /SDA_DocBookCMS/VAADIN/themes/valo/fonts/open-sans/OpenSans-Regular-webfont.eot? HTTP/1.1" 304 -
0:0:0:0:0:0:0:1 - - [12/Jul/2016:14:56:58 +0200] "GET /SDA_DocBookCMS/VAADIN/themes/valo/fonts/open-sans/OpenSans-Light-webfont.eot? HTTP/1.1" 304 -
0:0:0:0:0:0:0:1 - - [12/Jul/2016:14:56:58 +0200] "GET /SDA_DocBookCMS/VAADIN/themes/valo/shared/img/spinner.gif HTTP/1.1" 304 -
0:0:0:0:0:0:0:1 - - [12/Jul/2016:14:56:58 +0200] "GET /SDA_DocBookCMS/VAADIN/themes/valo/fonts/open-sans/OpenSans-Semibold-webfont.eot? HTTP/1.1" 304 -
0:0:0:0:0:0:0:1 - - [12/Jul/2016:14:57:10 +0200] "POST /SDA_DocBookCMS/UIDL/?v-uiId=0 HTTP/1.1" 200 3728
0:0:0:0:0:0:0:1 - - [12/Jul/2016:14:57:10 +0200] "GET /SDA_DocBookCMS/VAADIN/themes/base/fonts/themeicons-webfont.eot? HTTP/1.1" 304 -
0:0:0:0:0:0:0:1 - - [12/Jul/2016:14:57:25 +0200] "POST /SDA_DocBookCMS/UIDL/?v-uiId=0 HTTP/1.1" 200 843
0:0:0:0:0:0:0:1 - - [12/Jul/2016:14:57:26 +0200] "POST /SDA_DocBookCMS/UIDL/?v-uiId=0 HTTP/1.1" 200 860
0:0:0:0:0:0:0:1 - - [12/Jul/2016:14:57:30 +0200] "POST /SDA_DocBookCMS/UIDL/?v-uiId=0 HTTP/1.1" 200 2118
