127.0.0.1 - - [14/Jul/2016:11:44:01 +0200] "GET / HTTP/1.1" 404 994
0:0:0:0:0:0:0:1 - - [14/Jul/2016:11:44:03 +0200] "GET /SDA_DocBookCMS/servlet/com.example.sda_docbookcms.DocBookUI$Servlet HTTP/1.1" 200 2175
0:0:0:0:0:0:0:1 - - [14/Jul/2016:11:44:03 +0200] "GET /SDA_DocBookCMS/VAADIN/vaadinBootstrap.js?v=7.6.6 HTTP/1.1" 304 -
0:0:0:0:0:0:0:1 - - [14/Jul/2016:11:44:03 +0200] "GET /SDA_DocBookCMS/VAADIN/widgetsets/com.vaadin.DefaultWidgetSet/com.vaadin.DefaultWidgetSet.nocache.js?1468489443549 HTTP/1.1" 200 3295
0:0:0:0:0:0:0:1 - - [14/Jul/2016:11:44:04 +0200] "GET /SDA_DocBookCMS/VAADIN/themes/DocBookUI/styles.css?v=7.6.6 HTTP/1.1" 200 314284
0:0:0:0:0:0:0:1 - - [14/Jul/2016:11:44:04 +0200] "GET /SDA_DocBookCMS/VAADIN/themes/valo/fonts/open-sans/OpenSans-Light-webfont.eot? HTTP/1.1" 304 -
0:0:0:0:0:0:0:1 - - [14/Jul/2016:11:44:04 +0200] "GET /SDA_DocBookCMS/VAADIN/themes/valo/fonts/open-sans/OpenSans-Regular-webfont.eot? HTTP/1.1" 304 -
0:0:0:0:0:0:0:1 - - [14/Jul/2016:11:44:04 +0200] "GET /SDA_DocBookCMS/VAADIN/themes/valo/fonts/open-sans/OpenSans-Semibold-webfont.eot? HTTP/1.1" 304 -
0:0:0:0:0:0:0:1 - - [14/Jul/2016:11:44:04 +0200] "GET /SDA_DocBookCMS/VAADIN/themes/valo/shared/img/spinner.gif HTTP/1.1" 304 -
0:0:0:0:0:0:0:1 - - [14/Jul/2016:11:44:05 +0200] "POST /SDA_DocBookCMS/servlet/com.example.sda_docbookcms.DocBookUI$Servlet?v-1468489443550 HTTP/1.1" 200 4729
0:0:0:0:0:0:0:1 - - [14/Jul/2016:11:44:11 +0200] "POST /SDA_DocBookCMS/UIDL/?v-uiId=0 HTTP/1.1" 200 3729
0:0:0:0:0:0:0:1 - - [14/Jul/2016:11:44:11 +0200] "GET /SDA_DocBookCMS/VAADIN/themes/base/fonts/themeicons-webfont.eot? HTTP/1.1" 304 -
0:0:0:0:0:0:0:1 - - [14/Jul/2016:11:49:06 +0200] "POST /SDA_DocBookCMS/HEARTBEAT/?v-uiId=0 HTTP/1.1" 200 -
127.0.0.1 - - [14/Jul/2016:11:58:17 +0200] "GET / HTTP/1.1" 404 994
0:0:0:0:0:0:0:1 - - [14/Jul/2016:11:58:18 +0200] "GET /SDA_DocBookCMS/servlet/com.example.sda_docbookcms.DocBookUI$Servlet HTTP/1.1" 200 2175
0:0:0:0:0:0:0:1 - - [14/Jul/2016:11:58:18 +0200] "GET /SDA_DocBookCMS/VAADIN/widgetsets/com.vaadin.DefaultWidgetSet/com.vaadin.DefaultWidgetSet.nocache.js?1468490298812 HTTP/1.1" 200 3295
0:0:0:0:0:0:0:1 - - [14/Jul/2016:11:58:19 +0200] "GET /SDA_DocBookCMS/VAADIN/themes/DocBookUI/styles.css?v=7.6.6 HTTP/1.1" 200 314284
0:0:0:0:0:0:0:1 - - [14/Jul/2016:11:58:21 +0200] "POST /SDA_DocBookCMS/servlet/com.example.sda_docbookcms.DocBookUI$Servlet?v-1468490298813 HTTP/1.1" 200 4733
0:0:0:0:0:0:0:1 - - [14/Jul/2016:11:58:36 +0200] "POST /SDA_DocBookCMS/UIDL/?v-uiId=0 HTTP/1.1" 200 3731
0:0:0:0:0:0:0:1 - - [14/Jul/2016:11:58:41 +0200] "POST /SDA_DocBookCMS/APP/UPLOAD/0/32/action/863a22e6-96af-4b57-8740-78ce2338ddae HTTP/1.1" 200 53
0:0:0:0:0:0:0:1 - - [14/Jul/2016:11:58:41 +0200] "POST /SDA_DocBookCMS/UIDL/?v-uiId=0 HTTP/1.1" 200 4638
127.0.0.1 - - [14/Jul/2016:12:00:42 +0200] "GET / HTTP/1.1" 404 994
0:0:0:0:0:0:0:1 - - [14/Jul/2016:12:00:44 +0200] "GET /SDA_DocBookCMS/servlet/com.example.sda_docbookcms.DocBookUI$Servlet HTTP/1.1" 200 2175
0:0:0:0:0:0:0:1 - - [14/Jul/2016:12:00:44 +0200] "GET /SDA_DocBookCMS/VAADIN/widgetsets/com.vaadin.DefaultWidgetSet/com.vaadin.DefaultWidgetSet.nocache.js?1468490444475 HTTP/1.1" 200 3295
0:0:0:0:0:0:0:1 - - [14/Jul/2016:12:00:45 +0200] "GET /SDA_DocBookCMS/VAADIN/themes/DocBookUI/styles.css?v=7.6.6 HTTP/1.1" 200 314284
0:0:0:0:0:0:0:1 - - [14/Jul/2016:12:00:46 +0200] "POST /SDA_DocBookCMS/servlet/com.example.sda_docbookcms.DocBookUI$Servlet?v-1468490444476 HTTP/1.1" 200 4733
0:0:0:0:0:0:0:1 - - [14/Jul/2016:12:00:48 +0200] "POST /SDA_DocBookCMS/UIDL/?v-uiId=0 HTTP/1.1" 200 3734
0:0:0:0:0:0:0:1 - - [14/Jul/2016:12:00:53 +0200] "POST /SDA_DocBookCMS/APP/UPLOAD/0/32/action/1d7cd7a0-dac3-4890-ac97-8c5f83889320 HTTP/1.1" 200 53
0:0:0:0:0:0:0:1 - - [14/Jul/2016:12:00:53 +0200] "POST /SDA_DocBookCMS/UIDL/?v-uiId=0 HTTP/1.1" 200 4638
127.0.0.1 - - [14/Jul/2016:12:02:50 +0200] "GET / HTTP/1.1" 404 994
0:0:0:0:0:0:0:1 - - [14/Jul/2016:12:02:52 +0200] "GET /SDA_DocBookCMS/servlet/com.example.sda_docbookcms.DocBookUI$Servlet HTTP/1.1" 200 2175
0:0:0:0:0:0:0:1 - - [14/Jul/2016:12:02:52 +0200] "GET /SDA_DocBookCMS/VAADIN/widgetsets/com.vaadin.DefaultWidgetSet/com.vaadin.DefaultWidgetSet.nocache.js?1468490572170 HTTP/1.1" 200 3295
0:0:0:0:0:0:0:1 - - [14/Jul/2016:12:02:52 +0200] "GET /SDA_DocBookCMS/VAADIN/themes/DocBookUI/styles.css?v=7.6.6 HTTP/1.1" 200 314284
0:0:0:0:0:0:0:1 - - [14/Jul/2016:12:02:54 +0200] "POST /SDA_DocBookCMS/servlet/com.example.sda_docbookcms.DocBookUI$Servlet?v-1468490572171 HTTP/1.1" 200 4729
0:0:0:0:0:0:0:1 - - [14/Jul/2016:12:02:59 +0200] "POST /SDA_DocBookCMS/UIDL/?v-uiId=0 HTTP/1.1" 200 3727
0:0:0:0:0:0:0:1 - - [14/Jul/2016:12:03:07 +0200] "POST /SDA_DocBookCMS/APP/UPLOAD/0/32/action/53a8388b-aa33-4821-8ef8-81a94f512a0e HTTP/1.1" 200 53
0:0:0:0:0:0:0:1 - - [14/Jul/2016:12:03:07 +0200] "POST /SDA_DocBookCMS/UIDL/?v-uiId=0 HTTP/1.1" 200 6799
127.0.0.1 - - [14/Jul/2016:12:05:23 +0200] "GET / HTTP/1.1" 404 994
0:0:0:0:0:0:0:1 - - [14/Jul/2016:12:05:25 +0200] "GET /SDA_DocBookCMS/servlet/com.example.sda_docbookcms.DocBookUI$Servlet HTTP/1.1" 200 2175
0:0:0:0:0:0:0:1 - - [14/Jul/2016:12:05:25 +0200] "GET /SDA_DocBookCMS/VAADIN/widgetsets/com.vaadin.DefaultWidgetSet/com.vaadin.DefaultWidgetSet.nocache.js?1468490725103 HTTP/1.1" 200 3295
0:0:0:0:0:0:0:1 - - [14/Jul/2016:12:05:25 +0200] "GET /SDA_DocBookCMS/VAADIN/themes/DocBookUI/styles.css?v=7.6.6 HTTP/1.1" 200 314284
0:0:0:0:0:0:0:1 - - [14/Jul/2016:12:05:27 +0200] "POST /SDA_DocBookCMS/servlet/com.example.sda_docbookcms.DocBookUI$Servlet?v-1468490725104 HTTP/1.1" 200 4731
0:0:0:0:0:0:0:1 - - [14/Jul/2016:12:05:29 +0200] "POST /SDA_DocBookCMS/UIDL/?v-uiId=0 HTTP/1.1" 200 3730
0:0:0:0:0:0:0:1 - - [14/Jul/2016:12:05:38 +0200] "POST /SDA_DocBookCMS/APP/UPLOAD/0/32/action/896ee181-f2df-4dad-ab91-990824b7c72a HTTP/1.1" 200 53
0:0:0:0:0:0:0:1 - - [14/Jul/2016:12:05:38 +0200] "POST /SDA_DocBookCMS/UIDL/?v-uiId=0 HTTP/1.1" 200 6799
127.0.0.1 - - [14/Jul/2016:12:24:26 +0200] "GET / HTTP/1.1" 404 994
0:0:0:0:0:0:0:1 - - [14/Jul/2016:12:24:27 +0200] "GET /SDA_DocBookCMS/servlet/com.example.sda_docbookcms.DocBookUI$Servlet HTTP/1.1" 200 2175
0:0:0:0:0:0:0:1 - - [14/Jul/2016:12:24:27 +0200] "GET /SDA_DocBookCMS/VAADIN/widgetsets/com.vaadin.DefaultWidgetSet/com.vaadin.DefaultWidgetSet.nocache.js?1468491867815 HTTP/1.1" 200 3295
0:0:0:0:0:0:0:1 - - [14/Jul/2016:12:24:28 +0200] "GET /SDA_DocBookCMS/VAADIN/themes/DocBookUI/styles.css?v=7.6.6 HTTP/1.1" 200 314284
0:0:0:0:0:0:0:1 - - [14/Jul/2016:12:24:30 +0200] "POST /SDA_DocBookCMS/servlet/com.example.sda_docbookcms.DocBookUI$Servlet?v-1468491867838 HTTP/1.1" 200 4733
0:0:0:0:0:0:0:1 - - [14/Jul/2016:12:24:32 +0200] "POST /SDA_DocBookCMS/UIDL/?v-uiId=0 HTTP/1.1" 200 3733
0:0:0:0:0:0:0:1 - - [14/Jul/2016:12:24:38 +0200] "POST /SDA_DocBookCMS/APP/UPLOAD/0/32/action/7730970e-0747-4cbb-9b56-6277ccadab94 HTTP/1.1" 200 53
0:0:0:0:0:0:0:1 - - [14/Jul/2016:12:24:38 +0200] "POST /SDA_DocBookCMS/UIDL/?v-uiId=0 HTTP/1.1" 200 6799
127.0.0.1 - - [14/Jul/2016:12:26:28 +0200] "GET / HTTP/1.1" 404 994
0:0:0:0:0:0:0:1 - - [14/Jul/2016:12:26:30 +0200] "GET /SDA_DocBookCMS/servlet/com.example.sda_docbookcms.DocBookUI$Servlet HTTP/1.1" 200 2175
0:0:0:0:0:0:0:1 - - [14/Jul/2016:12:26:30 +0200] "GET /SDA_DocBookCMS/VAADIN/widgetsets/com.vaadin.DefaultWidgetSet/com.vaadin.DefaultWidgetSet.nocache.js?1468491990372 HTTP/1.1" 200 3295
0:0:0:0:0:0:0:1 - - [14/Jul/2016:12:26:31 +0200] "GET /SDA_DocBookCMS/VAADIN/themes/DocBookUI/styles.css?v=7.6.6 HTTP/1.1" 200 314284
0:0:0:0:0:0:0:1 - - [14/Jul/2016:12:26:32 +0200] "POST /SDA_DocBookCMS/servlet/com.example.sda_docbookcms.DocBookUI$Servlet?v-1468491990374 HTTP/1.1" 200 4734
0:0:0:0:0:0:0:1 - - [14/Jul/2016:12:26:34 +0200] "POST /SDA_DocBookCMS/UIDL/?v-uiId=0 HTTP/1.1" 200 3733
0:0:0:0:0:0:0:1 - - [14/Jul/2016:12:26:39 +0200] "POST /SDA_DocBookCMS/APP/UPLOAD/0/32/action/8056becc-d67a-4552-8bc8-3b9c772627ff HTTP/1.1" 200 53
0:0:0:0:0:0:0:1 - - [14/Jul/2016:12:26:39 +0200] "POST /SDA_DocBookCMS/UIDL/?v-uiId=0 HTTP/1.1" 200 6799
127.0.0.1 - - [14/Jul/2016:12:28:56 +0200] "GET / HTTP/1.1" 404 994
0:0:0:0:0:0:0:1 - - [14/Jul/2016:12:28:58 +0200] "GET /SDA_DocBookCMS/servlet/com.example.sda_docbookcms.DocBookUI$Servlet HTTP/1.1" 200 2175
0:0:0:0:0:0:0:1 - - [14/Jul/2016:12:28:58 +0200] "GET /SDA_DocBookCMS/VAADIN/widgetsets/com.vaadin.DefaultWidgetSet/com.vaadin.DefaultWidgetSet.nocache.js?1468492138054 HTTP/1.1" 200 3295
0:0:0:0:0:0:0:1 - - [14/Jul/2016:12:28:58 +0200] "GET /SDA_DocBookCMS/VAADIN/themes/DocBookUI/styles.css?v=7.6.6 HTTP/1.1" 200 314284
0:0:0:0:0:0:0:1 - - [14/Jul/2016:12:29:00 +0200] "POST /SDA_DocBookCMS/servlet/com.example.sda_docbookcms.DocBookUI$Servlet?v-1468492138055 HTTP/1.1" 200 4735
0:0:0:0:0:0:0:1 - - [14/Jul/2016:12:29:04 +0200] "POST /SDA_DocBookCMS/UIDL/?v-uiId=0 HTTP/1.1" 200 3734
0:0:0:0:0:0:0:1 - - [14/Jul/2016:12:29:14 +0200] "POST /SDA_DocBookCMS/APP/UPLOAD/0/32/action/a568f25e-d579-41dd-ae6e-d3d4b32e0a0d HTTP/1.1" 200 53
0:0:0:0:0:0:0:1 - - [14/Jul/2016:12:29:14 +0200] "POST /SDA_DocBookCMS/UIDL/?v-uiId=0 HTTP/1.1" 200 6799
127.0.0.1 - - [14/Jul/2016:12:34:07 +0200] "GET / HTTP/1.1" 404 994
0:0:0:0:0:0:0:1 - - [14/Jul/2016:12:34:09 +0200] "GET /SDA_DocBookCMS/servlet/com.example.sda_docbookcms.DocBookUI$Servlet HTTP/1.1" 200 2175
0:0:0:0:0:0:0:1 - - [14/Jul/2016:12:34:09 +0200] "GET /SDA_DocBookCMS/VAADIN/widgetsets/com.vaadin.DefaultWidgetSet/com.vaadin.DefaultWidgetSet.nocache.js?1468492449509 HTTP/1.1" 200 3295
0:0:0:0:0:0:0:1 - - [14/Jul/2016:12:34:10 +0200] "GET /SDA_DocBookCMS/VAADIN/themes/DocBookUI/styles.css?v=7.6.6 HTTP/1.1" 200 314284
0:0:0:0:0:0:0:1 - - [14/Jul/2016:12:34:11 +0200] "POST /SDA_DocBookCMS/servlet/com.example.sda_docbookcms.DocBookUI$Servlet?v-1468492449510 HTTP/1.1" 200 4730
0:0:0:0:0:0:0:1 - - [14/Jul/2016:12:34:13 +0200] "POST /SDA_DocBookCMS/UIDL/?v-uiId=0 HTTP/1.1" 200 3728
0:0:0:0:0:0:0:1 - - [14/Jul/2016:12:34:18 +0200] "POST /SDA_DocBookCMS/APP/UPLOAD/0/32/action/764961d6-3c2a-4ac0-bb96-6ab1322b72bb HTTP/1.1" 200 53
0:0:0:0:0:0:0:1 - - [14/Jul/2016:12:34:18 +0200] "POST /SDA_DocBookCMS/UIDL/?v-uiId=0 HTTP/1.1" 200 6799
127.0.0.1 - - [14/Jul/2016:12:39:27 +0200] "GET / HTTP/1.1" 404 994
0:0:0:0:0:0:0:1 - - [14/Jul/2016:12:39:29 +0200] "GET /SDA_DocBookCMS/servlet/com.example.sda_docbookcms.DocBookUI$Servlet HTTP/1.1" 200 2175
0:0:0:0:0:0:0:1 - - [14/Jul/2016:12:39:29 +0200] "GET /SDA_DocBookCMS/VAADIN/widgetsets/com.vaadin.DefaultWidgetSet/com.vaadin.DefaultWidgetSet.nocache.js?1468492769450 HTTP/1.1" 200 3295
0:0:0:0:0:0:0:1 - - [14/Jul/2016:12:39:30 +0200] "GET /SDA_DocBookCMS/VAADIN/themes/DocBookUI/styles.css?v=7.6.6 HTTP/1.1" 200 314284
0:0:0:0:0:0:0:1 - - [14/Jul/2016:12:39:31 +0200] "POST /SDA_DocBookCMS/servlet/com.example.sda_docbookcms.DocBookUI$Servlet?v-1468492769451 HTTP/1.1" 200 4730
0:0:0:0:0:0:0:1 - - [14/Jul/2016:12:39:33 +0200] "POST /SDA_DocBookCMS/UIDL/?v-uiId=0 HTTP/1.1" 200 3729
0:0:0:0:0:0:0:1 - - [14/Jul/2016:12:39:42 +0200] "POST /SDA_DocBookCMS/APP/UPLOAD/0/32/action/171343bc-8854-498b-ab2f-c07e1aec2dde HTTP/1.1" 200 53
0:0:0:0:0:0:0:1 - - [14/Jul/2016:12:39:43 +0200] "POST /SDA_DocBookCMS/UIDL/?v-uiId=0 HTTP/1.1" 200 1103
0:0:0:0:0:0:0:1 - - [14/Jul/2016:12:39:50 +0200] "POST /SDA_DocBookCMS/UIDL/?v-uiId=0 HTTP/1.1" 200 5271
127.0.0.1 - - [14/Jul/2016:12:41:52 +0200] "GET / HTTP/1.1" 404 994
0:0:0:0:0:0:0:1 - - [14/Jul/2016:12:41:54 +0200] "GET /SDA_DocBookCMS/servlet/com.example.sda_docbookcms.DocBookUI$Servlet HTTP/1.1" 200 2175
0:0:0:0:0:0:0:1 - - [14/Jul/2016:12:41:54 +0200] "GET /SDA_DocBookCMS/VAADIN/widgetsets/com.vaadin.DefaultWidgetSet/com.vaadin.DefaultWidgetSet.nocache.js?1468492914231 HTTP/1.1" 200 3295
0:0:0:0:0:0:0:1 - - [14/Jul/2016:12:41:55 +0200] "GET /SDA_DocBookCMS/VAADIN/themes/DocBookUI/styles.css?v=7.6.6 HTTP/1.1" 200 314284
0:0:0:0:0:0:0:1 - - [14/Jul/2016:12:41:56 +0200] "POST /SDA_DocBookCMS/servlet/com.example.sda_docbookcms.DocBookUI$Servlet?v-1468492914232 HTTP/1.1" 200 4735
0:0:0:0:0:0:0:1 - - [14/Jul/2016:12:41:57 +0200] "POST /SDA_DocBookCMS/UIDL/?v-uiId=0 HTTP/1.1" 200 3734
0:0:0:0:0:0:0:1 - - [14/Jul/2016:12:42:03 +0200] "POST /SDA_DocBookCMS/APP/UPLOAD/0/32/action/08e55fa7-65a5-4b41-8f48-6d194e64cb64 HTTP/1.1" 200 53
0:0:0:0:0:0:0:1 - - [14/Jul/2016:12:42:03 +0200] "POST /SDA_DocBookCMS/UIDL/?v-uiId=0 HTTP/1.1" 200 1075
127.0.0.1 - - [14/Jul/2016:12:46:59 +0200] "GET / HTTP/1.1" 404 994
0:0:0:0:0:0:0:1 - - [14/Jul/2016:12:47:01 +0200] "GET /SDA_DocBookCMS/servlet/com.example.sda_docbookcms.DocBookUI$Servlet HTTP/1.1" 200 2175
0:0:0:0:0:0:0:1 - - [14/Jul/2016:12:47:01 +0200] "GET /SDA_DocBookCMS/VAADIN/vaadinBootstrap.js?v=7.6.6 HTTP/1.1" 304 -
0:0:0:0:0:0:0:1 - - [14/Jul/2016:12:47:01 +0200] "GET /SDA_DocBookCMS/VAADIN/widgetsets/com.vaadin.DefaultWidgetSet/com.vaadin.DefaultWidgetSet.nocache.js?1468493221304 HTTP/1.1" 200 3295
0:0:0:0:0:0:0:1 - - [14/Jul/2016:12:47:02 +0200] "GET /SDA_DocBookCMS/VAADIN/themes/DocBookUI/styles.css?v=7.6.6 HTTP/1.1" 200 314284
0:0:0:0:0:0:0:1 - - [14/Jul/2016:12:47:02 +0200] "GET /SDA_DocBookCMS/VAADIN/themes/valo/fonts/open-sans/OpenSans-Light-webfont.eot? HTTP/1.1" 304 -
0:0:0:0:0:0:0:1 - - [14/Jul/2016:12:47:02 +0200] "GET /SDA_DocBookCMS/VAADIN/themes/valo/fonts/open-sans/OpenSans-Regular-webfont.eot? HTTP/1.1" 304 -
0:0:0:0:0:0:0:1 - - [14/Jul/2016:12:47:02 +0200] "GET /SDA_DocBookCMS/VAADIN/themes/valo/fonts/open-sans/OpenSans-Semibold-webfont.eot? HTTP/1.1" 304 -
0:0:0:0:0:0:0:1 - - [14/Jul/2016:12:47:02 +0200] "GET /SDA_DocBookCMS/VAADIN/themes/valo/shared/img/spinner.gif HTTP/1.1" 304 -
0:0:0:0:0:0:0:1 - - [14/Jul/2016:12:47:04 +0200] "POST /SDA_DocBookCMS/servlet/com.example.sda_docbookcms.DocBookUI$Servlet?v-1468493221305 HTTP/1.1" 200 4729
0:0:0:0:0:0:0:1 - - [14/Jul/2016:12:47:09 +0200] "POST /SDA_DocBookCMS/UIDL/?v-uiId=0 HTTP/1.1" 200 3727
0:0:0:0:0:0:0:1 - - [14/Jul/2016:12:47:09 +0200] "GET /SDA_DocBookCMS/VAADIN/themes/base/fonts/themeicons-webfont.eot? HTTP/1.1" 304 -
0:0:0:0:0:0:0:1 - - [14/Jul/2016:12:47:15 +0200] "POST /SDA_DocBookCMS/APP/UPLOAD/0/32/action/0e21db66-a425-42e1-8eea-2eaec42bc2db HTTP/1.1" 200 53
0:0:0:0:0:0:0:1 - - [14/Jul/2016:12:47:15 +0200] "POST /SDA_DocBookCMS/UIDL/?v-uiId=0 HTTP/1.1" 200 6548
127.0.0.1 - - [14/Jul/2016:12:50:17 +0200] "GET / HTTP/1.1" 404 994
0:0:0:0:0:0:0:1 - - [14/Jul/2016:12:50:18 +0200] "GET /SDA_DocBookCMS/servlet/com.example.sda_docbookcms.DocBookUI$Servlet HTTP/1.1" 200 2175
0:0:0:0:0:0:0:1 - - [14/Jul/2016:12:50:18 +0200] "GET /SDA_DocBookCMS/VAADIN/widgetsets/com.vaadin.DefaultWidgetSet/com.vaadin.DefaultWidgetSet.nocache.js?1468493418523 HTTP/1.1" 200 3295
0:0:0:0:0:0:0:1 - - [14/Jul/2016:12:50:19 +0200] "GET /SDA_DocBookCMS/VAADIN/themes/DocBookUI/styles.css?v=7.6.6 HTTP/1.1" 200 314284
0:0:0:0:0:0:0:1 - - [14/Jul/2016:12:50:20 +0200] "POST /SDA_DocBookCMS/servlet/com.example.sda_docbookcms.DocBookUI$Servlet?v-1468493418524 HTTP/1.1" 200 4734
0:0:0:0:0:0:0:1 - - [14/Jul/2016:12:50:22 +0200] "POST /SDA_DocBookCMS/UIDL/?v-uiId=0 HTTP/1.1" 200 3733
0:0:0:0:0:0:0:1 - - [14/Jul/2016:12:50:29 +0200] "POST /SDA_DocBookCMS/APP/UPLOAD/0/32/action/40315db1-54d3-47e2-b997-58d72d2ae230 HTTP/1.1" 200 53
0:0:0:0:0:0:0:1 - - [14/Jul/2016:12:50:30 +0200] "POST /SDA_DocBookCMS/UIDL/?v-uiId=0 HTTP/1.1" 200 1103
0:0:0:0:0:0:0:1 - - [14/Jul/2016:12:50:37 +0200] "POST /SDA_DocBookCMS/UIDL/?v-uiId=0 HTTP/1.1" 200 158
0:0:0:0:0:0:0:1 - - [14/Jul/2016:12:50:37 +0200] "POST /SDA_DocBookCMS/APP/UPLOAD/0/32/action/40315db1-54d3-47e2-b997-58d72d2ae230 HTTP/1.1" 200 53
0:0:0:0:0:0:0:1 - - [14/Jul/2016:12:50:37 +0200] "POST /SDA_DocBookCMS/UIDL/?v-uiId=0 HTTP/1.1" 200 1133
127.0.0.1 - - [14/Jul/2016:12:53:40 +0200] "GET / HTTP/1.1" 404 994
0:0:0:0:0:0:0:1 - - [14/Jul/2016:12:53:41 +0200] "GET /SDA_DocBookCMS/servlet/com.example.sda_docbookcms.DocBookUI$Servlet HTTP/1.1" 200 2175
0:0:0:0:0:0:0:1 - - [14/Jul/2016:12:53:41 +0200] "GET /SDA_DocBookCMS/VAADIN/widgetsets/com.vaadin.DefaultWidgetSet/com.vaadin.DefaultWidgetSet.nocache.js?1468493621875 HTTP/1.1" 200 3295
0:0:0:0:0:0:0:1 - - [14/Jul/2016:12:53:42 +0200] "GET /SDA_DocBookCMS/VAADIN/themes/DocBookUI/styles.css?v=7.6.6 HTTP/1.1" 200 314284
0:0:0:0:0:0:0:1 - - [14/Jul/2016:12:53:44 +0200] "POST /SDA_DocBookCMS/servlet/com.example.sda_docbookcms.DocBookUI$Servlet?v-1468493621876 HTTP/1.1" 200 4730
0:0:0:0:0:0:0:1 - - [14/Jul/2016:12:53:45 +0200] "POST /SDA_DocBookCMS/UIDL/?v-uiId=0 HTTP/1.1" 200 3728
127.0.0.1 - - [14/Jul/2016:13:11:51 +0200] "GET / HTTP/1.1" 404 994
0:0:0:0:0:0:0:1 - - [14/Jul/2016:13:11:54 +0200] "GET /SDA_DocBookCMS/servlet/com.example.sda_docbookcms.DocBookUI$Servlet HTTP/1.1" 200 2175
0:0:0:0:0:0:0:1 - - [14/Jul/2016:13:11:54 +0200] "GET /SDA_DocBookCMS/VAADIN/widgetsets/com.vaadin.DefaultWidgetSet/com.vaadin.DefaultWidgetSet.nocache.js?1468494714056 HTTP/1.1" 200 3295
0:0:0:0:0:0:0:1 - - [14/Jul/2016:13:11:54 +0200] "GET /SDA_DocBookCMS/VAADIN/themes/DocBookUI/styles.css?v=7.6.6 HTTP/1.1" 200 314284
0:0:0:0:0:0:0:1 - - [14/Jul/2016:13:11:56 +0200] "POST /SDA_DocBookCMS/servlet/com.example.sda_docbookcms.DocBookUI$Servlet?v-1468494714057 HTTP/1.1" 200 4734
0:0:0:0:0:0:0:1 - - [14/Jul/2016:13:11:59 +0200] "POST /SDA_DocBookCMS/UIDL/?v-uiId=0 HTTP/1.1" 200 3733
0:0:0:0:0:0:0:1 - - [14/Jul/2016:13:12:11 +0200] "POST /SDA_DocBookCMS/UIDL/?v-uiId=0 HTTP/1.1" 200 1113
0:0:0:0:0:0:0:1 - - [14/Jul/2016:13:12:11 +0200] "POST /SDA_DocBookCMS/APP/UPLOAD/0/32/action/fbe73fda-c44a-45b3-9e4f-697e7d188da8 HTTP/1.1" 200 53
0:0:0:0:0:0:0:1 - - [14/Jul/2016:13:12:22 +0200] "POST /SDA_DocBookCMS/UIDL/?v-uiId=0 HTTP/1.1" 200 14509
0:0:0:0:0:0:0:1 - - [14/Jul/2016:13:13:13 +0200] "POST /SDA_DocBookCMS/APP/UPLOAD/0/32/action/fbe73fda-c44a-45b3-9e4f-697e7d188da8 HTTP/1.1" 200 53
0:0:0:0:0:0:0:1 - - [14/Jul/2016:13:13:13 +0200] "POST /SDA_DocBookCMS/UIDL/?v-uiId=0 HTTP/1.1" 200 1133
0:0:0:0:0:0:0:1 - - [14/Jul/2016:13:13:24 +0200] "POST /SDA_DocBookCMS/APP/UPLOAD/0/32/action/fbe73fda-c44a-45b3-9e4f-697e7d188da8 HTTP/1.1" 200 53
0:0:0:0:0:0:0:1 - - [14/Jul/2016:13:13:24 +0200] "POST /SDA_DocBookCMS/UIDL/?v-uiId=0 HTTP/1.1" 200 1174
0:0:0:0:0:0:0:1 - - [14/Jul/2016:13:13:26 +0200] "POST /SDA_DocBookCMS/UIDL/?v-uiId=0 HTTP/1.1" 200 865
0:0:0:0:0:0:0:1 - - [14/Jul/2016:13:13:27 +0200] "POST /SDA_DocBookCMS/UIDL/?v-uiId=0 HTTP/1.1" 200 866
127.0.0.1 - - [14/Jul/2016:13:20:25 +0200] "GET / HTTP/1.1" 404 994
0:0:0:0:0:0:0:1 - - [14/Jul/2016:13:20:27 +0200] "GET /SDA_DocBookCMS/servlet/com.example.sda_docbookcms.DocBookUI$Servlet HTTP/1.1" 200 2175
0:0:0:0:0:0:0:1 - - [14/Jul/2016:13:20:27 +0200] "GET /SDA_DocBookCMS/VAADIN/widgetsets/com.vaadin.DefaultWidgetSet/com.vaadin.DefaultWidgetSet.nocache.js?1468495227218 HTTP/1.1" 200 3295
0:0:0:0:0:0:0:1 - - [14/Jul/2016:13:20:28 +0200] "GET /SDA_DocBookCMS/VAADIN/themes/DocBookUI/styles.css?v=7.6.6 HTTP/1.1" 200 314284
0:0:0:0:0:0:0:1 - - [14/Jul/2016:13:20:29 +0200] "POST /SDA_DocBookCMS/servlet/com.example.sda_docbookcms.DocBookUI$Servlet?v-1468495227219 HTTP/1.1" 200 4734
0:0:0:0:0:0:0:1 - - [14/Jul/2016:13:24:07 +0200] "POST /SDA_DocBookCMS/UIDL/?v-uiId=0 HTTP/1.1" 200 3732
0:0:0:0:0:0:0:1 - - [14/Jul/2016:13:25:12 +0200] "POST /SDA_DocBookCMS/UIDL/?v-uiId=0 HTTP/1.1" 200 2118
0:0:0:0:0:0:0:1 - - [14/Jul/2016:13:25:23 +0200] "POST /SDA_DocBookCMS/UIDL/?v-uiId=0 HTTP/1.1" 200 576
0:0:0:0:0:0:0:1 - - [14/Jul/2016:13:25:26 +0200] "POST /SDA_DocBookCMS/UIDL/?v-uiId=0 HTTP/1.1" 200 498
0:0:0:0:0:0:0:1 - - [14/Jul/2016:13:25:27 +0200] "POST /SDA_DocBookCMS/UIDL/?v-uiId=0 HTTP/1.1" 200 3495
0:0:0:0:0:0:0:1 - - [14/Jul/2016:13:25:29 +0200] "POST /SDA_DocBookCMS/HEARTBEAT/?v-uiId=0 HTTP/1.1" 200 -
0:0:0:0:0:0:0:1 - - [14/Jul/2016:13:25:42 +0200] "POST /SDA_DocBookCMS/UIDL/?v-uiId=0 HTTP/1.1" 200 2117
0:0:0:0:0:0:0:1 - - [14/Jul/2016:13:30:29 +0200] "POST /SDA_DocBookCMS/HEARTBEAT/?v-uiId=0 HTTP/1.1" 410 1064
